{
  "dependencies": {
    "identityapp1": {
      "ignored": "true",
      "suggestion": "true",
      "type": "identityapp",
      "connectionId": ""
    },
    "mssql1": {
      "secretStore": null,
      "type": "mssql.onprem",
      "connectionId": "ConnectionStrings"
    }
  }
}